Juan Pablo C. H. - R tutorial: Principal Component Analysis with Metabolomics Data
…
# Calculate the variance of each principal component in PCA and store it in var_pca
var_pca <- qt_pca$sdev^2

# Calculate the percentage of total variance explained by each principal component
per_var_pca <- round((var_pca / sum(var_pca)) * 100, 2)

# Create a tibble (data frame) to store the results, with columns PC and PER_VAR
per_var_pca <- tibble(
  PC = 1:length(per_var_pca),
  PER_VAR = per_var_pca
)

per_var_pca

# A tibble: 24 × 2
      PC PER_VAR
   <int>   <dbl>
 1     1   80.7 
 2     2   11.5 
 3     3    2.57
 4     4    2.08
 5     5    0.84
 6     6    0.65
 7     7    0.49
 8     8    0.36
 9     9    0.18
10    10    0.16
# ℹ 14 more rows
…
